{
  "images" : [
    {
      "idiom" : "universal",
      "filename" : "rightSpaceButton1.png",
      "scale" : "1x"
    },
    {
      "idiom" : "universal",
      "filename" : "rightSpaceButton2.png",
      "scale" : "2x"
    },
    {
      "idiom" : "universal",
      "filename" : "rightSpaceButton3.png",
      "scale" : "3x"
    }
  ],
  "info" : {
    "version" : 1,
    "author" : "xcode"
  }
}